^Z:\Z_KAMAJ\WINWORD\KEVÄT 2018\CC++OHJELMOINTI\EXAMPLEPROJECT\EXAMPLEPROJECT\EXAMPLEPROJECT.C
Z:\Z_KAMAJ\WINWORD\KEVäT 2018\CC++OHJELMOINTI\EXAMPLEPROJECT\EXAMPLEPROJECT\DEBUG\EXAMPLEPROJECT.OBJ
Z:\Z_KAMAJ\WINWORD\KEVÄT 2018\CC++OHJELMOINTI\EXAMPLEPROJECT\EXAMPLEPROJECT\DEBUG\VC110.PDB
^Z:\Z_KAMAJ\WINWORD\KEVÄT 2018\CC++OHJELMOINTI\EXAMPLEPROJECT\EXAMPLEPROJECT\STDAFX.CPP
Z:\Z_KAMAJ\WINWORD\KEVäT 2018\CC++OHJELMOINTI\EXAMPLEPROJECT\EXAMPLEPROJECT\DEBUG\STDAFX.OBJ
Z:\Z_KAMAJ\WINWORD\KEVÄT 2018\CC++OHJELMOINTI\EXAMPLEPROJECT\EXAMPLEPROJECT\DEBUG\VC110.PDB
